<?xml version="1.0" encoding="UTF-8"?>
<session version="1.0">
<refactoring comment="Rename resource &apos;adc_led/src/practica_clase_30_08.c&apos; to &apos;adc_led.c&apos;" description="Rename resource &apos;practica_clase_30_08.c&apos;" flags="7" id="org.eclipse.ltk.core.refactoring.rename.resource" input="src/practica_clase_30_08.c" name="adc_led.c" stamp="1488928425975" updateReferences="true"/>
</session>